### N4Si ###
a52dec 0.7.4-12
aalib 1.4rc5-15
accountsservice 23.13.9-1
acl 2.3.1-3
acpi_call-dkms 1.2.2-1
adobe-source-code-pro-fonts 2.042u+1.062i+1.026vf-1
adwaita-cursors 43-2
adwaita-icon-theme 43-2
aic94xx-firmware 30-9
alacritty 0.12.0-1
alsa-card-profiles 1:0.3.70-1
alsa-lib 1.2.8-1
alsa-topology-conf 1.2.5.1-3
alsa-ucm-conf 1.2.8-1
alsa-utils 1.2.8-1
amd-ucode 20230210.bf4115c-1
ananicy-cpp 1.0.2-1
ananicy-rules 1.r129.8ac5d97-1
anita-plymouth v23.01-23
aom 3.6.0-1
appstream-glib 0.8.2-2
aptpac 3.3.0-1
arch-install-scripts 28-1
archlinux-appstream-data-pamac 1:20230421-1
archlinux-keyring 20230320-1
argon2 20190702-4
aria2 1.36.0-1
asp 8-1
at-spi2-core 2.48.0-2
atkmm 2.28.3-1
attica 5.105.0-1
attr 2.5.1-3
audit 3.1-1
autoconf 2.71-4
automake 1.16.5-2
autorandr 1.13.3-1
avahi 0.8+22+gfd482a7-3
b43-fwcutter 019-4
base 3-1
base-devel 1-1
bash 5.1.016-3
bash-completion 2.11-3
bat 0.23.0-3
bbswitch-dkms 0.8-586
bc 1.07.1-4
beautyline 1:20230402-1
bind 9.18.14-1
binutils 2.40-4
bison 3.8.2-5
blas 3.11.0-2
bleachbit 4.4.2-3
blueman 2.3.5-1
bluez 5.66-1
bluez-libs 5.66-1
bluez-utils 5.66-1
boost 1.81.0-3
boost-libs 1.81.0-3
botan 2.19.3-1
brave-bin 1:1.50.125-1
breeze 5.27.4-1
breeze-icons 5.105.0-1
brltty 6.5-3
brotli 1.0.9-10
btrfs-progs 6.2.2-1
bubblewrap 0.8.0-1
bzip2 1.0.8-5
c-ares 1.19.0-1
ca-certificates 20220905-1
ca-certificates-mozilla 3.89-1
ca-certificates-utils 20220905-1
cairo 1.17.8-2
cairomm 1.14.4-1
calamares 3.2.61-1
cantarell-fonts 1:0.303.1-1
caribou 0.4.21+75+g8ad9883-3
cblas 3.11.0-2
cdparanoia 10.2-8
chaotic-keyring 20220803-1
chaotic-mirrorlist 20230424-1
cheese 43.0-1
chromaprint 1.5.1-7
cifs-utils 7.0-3
cinnamon 5.6.8-1
cinnamon-control-center 5.6.1-1
cinnamon-desktop 5.6.2-1
cinnamon-menus 5.6.0-1
cinnamon-screensaver 5.6.3-1
cinnamon-session 5.6.0-1
cinnamon-settings-daemon 5.6.2-1
cinnamon-translations 5.6.1-1
cjs 5.6.1-1
ckbcomp 1.210-1
clipit 1.4.5-3.2
clonezilla 3.35.2-5
cloud-init 23.1.1-1
clutter 1.26.4-2
clutter-gst 3.0.27-4
clutter-gtk 1.8.4-3
cogl 1.22.8-2
colord 1.4.6-1
colord-sane 1.4.6-1
coreutils 9.3-1
cracklib 2.9.8-1
cronie 1.6.1-1
cryptsetup 2.6.1-3
cups 1:2.4.2-6
cups-filters 1.28.17-2
curl 8.0.1-1
darkhttpd 1.14-1
dav1d 1.1.0-1
db5.3 5.3.28-2
dbus 1.14.6-2
dbus-glib 0.112-2
dbus-python 1.2.18-4
dconf 0.40.0-2
ddrescue 1.27-1
debugedit 5.0-5
default-cursors 2-1
deluge 1:2.1.1-3
deluge-gtk 1:2.1.1-3
desktop-file-utils 0.26-2
device-mapper 2.03.20-1
dhclient 4.4.3.P1-1
dhcpcd 9.4.1-1
diffutils 3.9-1
ding-libs 0.6.2-1
dkms 3.0.10-1
dmraid 1.0.0.rc16.3-14
dnsmasq 2.89-1
dnssec-anchors 20190629-3
dosfstools 4.2-3
double-conversion 3.2.1-1
drbl 2.30.5-3
duktape 2.7.0-5
e2fsprogs 1.47.0-1
earlyoom 1.7-1
ecryptfs-utils 111-7
edk2-shell 202211-3
efibootmgr 18-2
efivar 38-3
egl-wayland 2:1.1.11-4
eglexternalplatform 1.1-2
elementary-wallpapers 7.0.0-1
ell 0.56-1
emote 3.0.3-4.1
enchant 2.3.4-1
espeak-ng 1.51.1-2
espeakup 0.90-2
ethtool 1:6.2-1
exempi 2.6.3-1
exfatprogs 1.2.0-1
expat 2.5.0-1
f2fs-tools 1.16.0-1
faac 1.30-4
faad2 2.10.1-1
fakeroot 1.31-2
fatresize 1.1.0-1
ffmpeg 2:6.0-5
ffmpegthumbs 23.04.0-1
fftw 3.3.10-4
file 5.44-3
file-roller 43.0-1
filesystem 2023.01.31-1
findutils 4.9.0-3
flac 1.4.2-1
flex 2.6.4-5
fluidsynth 2.3.2-1
fmt 9.1.0-4
fontconfig 2:2.14.2-1
frameworkintegration 5.105.0-1
freetype2 2.13.0-1
frei0r-plugins 2.2.0-1
fribidi 1.0.12-1
fsarchiver 0.8.7-1
fuse-common 3.14.1-1
fuse2 2.9.9-4
fuse3 3.14.1-1
fuseiso 20070708-8
fzf 0.39.0-1
galculator 2.1.4-8
gavl 1.4.0-7
gawk 5.2.1-2
gc 8.2.2-1
gcc 12.2.1-2
gcc-ada 12.2.1-2
gcc-libs 12.2.1-2
gcr 3.41.1-3
gcr-4 4.0.0-1
gd 2.3.3-6
gdbm 1.23-2
gdk-pixbuf-xlib 2.40.2-2
gdk-pixbuf2 2.42.10-2
geoclue 2.7.0-1
geoip 1.6.12-2
geoip-database 20230414-1
geoip-database-extra 20230414-1
gestures 0.3.1-1.1
gettext 0.21.1-5
ghostscript 10.01.1-1
giflib 5.2.1-2
git 2.40.0-1
gjs 2:1.74.2-1
glib-networking 1:2.76.0-1
glib2 2.76.1-1
glibc 2.37-2
glibmm 2.66.6-1
glslang 12.1.0-1
gmp 6.2.1-2
gnome-backgrounds 43.1-1
gnome-desktop 1:43.2-1
gnome-desktop-common 1:43.2-1
gnome-online-accounts 3.46.0-1
gnome-screenshot 41.0+r25+g45f08f0-1
gnome-sound-recorder 42.0-1
gnome-system-monitor 44.0-1
gnome-themes-extra 3.28+r6+g45b1d457-1
gnome-video-effects 0.5.0+4+g9554041-2
gnu-netcat 0.7.1-9
gnupg 2.2.41-1
gnustep-base 1.29.0-1
gnutls 3.8.0-1
gobject-introspection 1.76.1-1
gobject-introspection-runtime 1.76.1-1
gpart 0.3-4
gparted 1.5.0-1
gperftools 2.10-1
gpgme 1.20.0-1
gpm 1.20.7.r38.ge82d1a6-4
gptfdisk 1.0.9-2
graphene 1.10.8-1
graphite 1:1.3.14-3
grep 3.10-1
grilo 0.3.15-2
groff 1.22.4-10
grub 2:2.06.r499.ge67a551a4-1
grub-btrfs 4.12-2
gsettings-desktop-schemas 44.0-1
gsm 1.0.22-1
gsmartcontrol 1.1.4-1
gsound 1.0.3-2
gspell 1.12.0-2
gssdp 1.6.2-1
gssproxy 0.9.1-2
gst-libav 1.22.1-2
gst-plugins-bad 1.22.1-2
gst-plugins-bad-libs 1.22.1-2
gst-plugins-base 1.22.1-2
gst-plugins-base-libs 1.22.1-2
gst-plugins-good 1.22.1-2
gst-plugins-ugly 1.22.1-2
gstreamer 1.22.1-2
gtk-backgrounds-default 23.04-21
gtk-engine-murrine 0.98.2-4
gtk-engines 2.21.0-5
gtk-update-icon-cache 1:4.10.3-1
gtk2 2.24.33-3
gtk3 1:3.24.37-1
gtk4 1:4.10.3-1
gtkmm3 3.24.7-1
gtksourceview4 4.8.4-1
gufw 22.04-1
guile 3.0.9-1
gupnp 1:1.6.3-1
gupnp-igd 1.6.0-1
gvfs 1.50.4-1
gvfs-afc 1.50.4-1
gvfs-goa 1.50.4-1
gvfs-google 1.50.4-1
gvfs-gphoto2 1.50.4-1
gvfs-mtp 1.50.4-1
gvfs-nfs 1.50.4-1
gvfs-smb 1.50.4-1
gwe 0.15.5-3.1
gzip 1.12-2
hardinfo 0.5.1.816.g877ea2b-2.1
harfbuzz 7.1.0-1
harfbuzz-icu 7.1.0-1
haveged 1.9.18-1
hdparm 9.65-1
hicolor-icon-theme 0.17-3
hidapi 0.13.1-2
highway 1.0.4-1
htop 3.2.2-1
http-parser 2.9.4-1
hunspell 1.7.2-1
hwdata 0.369-1
hwinfo 22.2-2
hwloc 2.9.1-1
hyphen 2.8.8-5
iana-etc 20230405-1
icu 72.1-2
ijs 0.35-5
imagemagick 7.1.1.7-1
imath 3.1.7-1
imlib2 1.11.0-1
imwheel 1.0.0pre12-6
iniparser 4.1-4
intel-ucode 20230214-1
inxi 3.3.26.1-1
ipp-usb 0.9.23-1
iproute2 6.2.0-2
iptables 1:1.8.9-1
iputils 20221126-1
irqbalance 1.9.2-1
irssi 1.4.4-1
iso-codes 4.13.0-1
iso-flag-png 1.0.2-1
iw 5.19-1
iwd 2.4-1
jansson 2.14-2
jbig2dec 0.19-1
jemalloc 1:5.3.0-1
jfsutils 1.1.15-8
jq 1.6-4
js102 102.10.0-1
js78 78.15.0-4
json-c 0.16-1
json-glib 1.6.6-2
kactivities 5.105.0-1
karchive 5.105.0-1
kauth 5.105.0-1
kbd 2.5.1-1
kbookmarks 5.105.0-1
kcodecs 5.105.0-1
kcompletion 5.105.0-1
kconfig 5.105.0-1
kconfigwidgets 5.105.0-1
kcoreaddons 5.105.0-1
kcrash 5.105.0-1
kdbusaddons 5.105.0-1
kdeclarative 5.105.0-1
kdecoration 5.27.4-1
kded 5.105.0-1
keyutils 1.6.3-1
kglobalaccel 5.105.0-1
kguiaddons 5.105.0-1
ki18n 5.105.0-1
kiconthemes 5.105.0-1
kio 5.105.0-1
kirigami2 5.105.0-1
kitemviews 5.105.0-1
kjobwidgets 5.105.0-1
kmod 30-3
knewstuff 5.105.0-1
knotifications 5.105.0-1
kpackage 5.105.0-1
kpmcore 23.04.0-1
krb5 1.20.1-1
kservice 5.105.0-1
ktextwidgets 5.105.0-1
kwallet 5.105.0-1
kwayland 5.105.0-1
kwidgetsaddons 5.105.0-1
kwindowsystem 5.105.0-1
kxmlgui 5.105.0-1
l-smash 2.14.5-3
lame 3.100-4
lapack 3.11.0-2
lbzip2 2.5-5
lcms2 2.15-1
ldb 2:2.7.2-1
ldns 1.8.3-2
less 1:608-2
lib32-brotli 1.0.9-5
lib32-bzip2 1.0.8-3
lib32-curl 8.0.1-1
lib32-e2fsprogs 1.47.0-1
lib32-expat 2.5.0-2
lib32-gcc-libs 12.2.1-2
lib32-glibc 2.37-2
lib32-icu 72.1-2
lib32-keyutils 1.6.3-1
lib32-krb5 1.20.1-1
lib32-libdrm 2.4.115-1
lib32-libelf 0.189-1
lib32-libffi 3.4.4-1
lib32-libglvnd 1.6.0-1
lib32-libidn2 2.3.4-2
lib32-libldap 2.6.4-1
lib32-libpciaccess 0.17-1
lib32-libpsl 0.21.2-1
lib32-libssh2 1.10.0-2
lib32-libunistring 1.1-1
lib32-libunwind 1.6.2-2
lib32-libx11 1.8.4-1
lib32-libxau 1.0.11-1
lib32-libxcb 1.15-2
lib32-libxcrypt 4.4.33-1
lib32-libxdamage 1.1.6-1
lib32-libxdmcp 1.1.4-1
lib32-libxext 1.3.5-1
lib32-libxfixes 6.0.0-2
lib32-libxml2 2.10.4-2
lib32-libxshmfence 1.3.2-1
lib32-libxxf86vm 1.1.5-1
lib32-llvm-libs 15.0.7-1
lib32-lm_sensors 1:3.6.0.r41.g31d1f125-2
lib32-mesa 23.0.3-1
lib32-ncurses 6.4-1
lib32-nvidia-470xx-utils 470.182.03-1
lib32-opencl-nvidia-470xx 470.182.03-1
lib32-openssl 1:3.0.8-1
lib32-vulkan-icd-loader 1.3.245-1
lib32-wayland 1.22.0-1
lib32-xz 5.4.2-1
lib32-zlib 1.2.13-2
lib32-zstd 1.5.5-1
libadwaita 1:1.3.2-1
libaio 0.3.113-2
libappindicator-gtk3 12.10.0.r298-1
libarchive 3.6.2-2
libass 0.17.1-1
libassuan 2.5.5-2
libasyncns 1:0.8+r3+g68cd5af-2
libatasmart 0.19-5
libavc1394 0.5.4-5
libavif 0.11.1-1
libavtp 0.2.0-2
libblockdev 2.28-1
libbluray 1.3.4-1
libbpf 1.1.0-1
libbs2b 3.1.0-8
libbsd 0.11.7-1
libbytesize 2.7-1
libcaca 0.99.beta20-1
libcacard 2.7.0-2
libcamera 0.0.4-4
libcamera-ipa 0.0.4-4
libcanberra 1:0.30+r2+gc0620e4-3
libcap 2.68-1
libcap-ng 0.8.3-1
libcdio 2.1.0-3
libcdio-paranoia 10.2+2.0.1-2
libcheese 43.0-1
libcloudproviders 0.3.1+r8+g3a229ee-1
libcolord 1.4.6-1
libcroco 0.6.13-2
libcups 1:2.4.2-6
libdaemon 0.14-5
libdatrie 0.2.13-2
libdazzle 3.44.0-1
libdbusmenu-glib 16.04.0-5
libdbusmenu-gtk3 16.04.0-5
libdbusmenu-qt5 0.9.3+16.04.20160218-6
libdc1394 2.2.6-2
libdca 0.0.7-1
libde265 1.0.11-2
libdecor 0.1.1-2
libdnet 1.16.4-1
libdrm 2.4.115-1
libdv 1.0.0-10
libdvdnav 6.1.1-1
libdvdread 6.1.3-1
libedit 20221030_3.1-1
libelf 0.189-1
libepoxy 1.5.10-1
libevdev 1.13.0-1
libevent 2.1.12-4
libexif 0.6.24-1
libfdk-aac 2.0.2-1
libffi 3.4.4-1
libfontenc 1.1.7-1
libfreeaptx 0.1.1-1
libgcrypt 1.10.2-1
libgdata 0.18.1-2
libgee 0.20.6-1
libgirepository 1.76.1-1
libgit2 1:1.6.4-1
libglvnd 1.6.0-1
libgme 0.6.3-2
libgnomekbd 1:3.28.1-1
libgpg-error 1.47-1
libgphoto2 2.5.30-2
libgsf 1.14.50-1
libgtop 2.40.0+2+g31db82ef-2
libgudev 237-2
libgusb 0.4.5-1
libhandy 1.8.2-1
libheif 1.15.2-1
libical 3.0.16-4
libice 1.1.1-2
libidn 1.41-1
libidn2 2.3.4-3
libiec61883 1.2.0-7
libieee1284 0.2.11-14
libimagequant 4.1.1-1
libimobiledevice 1.3.0-6
libindicator-gtk3 12.10.1-10
libinih 56-1
libinput 1.23.0-1
libinput-gestures 2.74-1
libinstpatch 1.1.6-2
libisl 0.26-1
libjpeg-turbo 2.1.5.1-1
libjxl 0.8.1-1
libkate 0.4.1-9
libkeybinder3 0.3.2-4
libksba 1.6.3-1
liblc3 1.0.2-1
libldac 2.0.2.3-1
libldap 2.6.4-2
liblouis 3.25.0-1
liblqr 0.4.2-3
liblrdf 0.6.1-4
libltc 1.3.2-1
libmanette 0.2.6-4
libmaxminddb 1.7.1-1
libmbim 1.28.4-1
libmd 1.0.4-1
libmfx 23.1.6-1
libmicrodns 0.2.0-1
libmm-glib 1.20.6-1
libmnl 1.0.5-1
libmodplug 0.8.9.0-5
libmpc 1.3.1-1
libmpcdec 1:0.1+r475-3
libmpeg2 0.5.1-7
libmspack 1:0.11alpha-1
libmtp 1.1.20-1
libmusicbrainz5 5.1.0-5
libmysofa 1.3.1-2
libndp 1.8-1
libnetfilter_conntrack 1.0.9-1
libnewt 0.52.23-1
libnfnetlink 1.0.2-1
libnfs 5.0.2-1
libnftnl 1.2.5-1
libnghttp2 1.52.0-2
libnice 0.1.21-2
libnl 3.7.0-3
libnm 1.42.6-1
libnma 1.10.6-1
libnma-common 1.10.6-1
libnotify 0.8.2-1
libnsl 2.0.0-3
liboauth 1:1.0.3+r16+gc26f038-1
libogg 1.3.5-1
libomxil-bellagio 0.9.3-4
libopenmpt 0.6.10-1
libopenraw 0.3.4-1
libotr 4.1.1-3
libp11-kit 0.24.1-1
libpamac-aur 11.5.2-1
libpaper 2.1.0-1
libpcap 1.10.3-1
libpciaccess 0.17-1
libpeas 1.34.0-1
libpgm 5.3.128-2
libpipeline 1.5.7-1
libpipewire 1:0.3.70-1
libplacebo 5.229.2-2
libplist 2.2.0-6
libpng 1.6.39-1
libportal 0.6-1
libportal-gtk3 0.6-1
libproxy 0.4.18-2
libpsl 0.21.2-1
libpulse 16.1-6
libpwquality 1.4.5-1
libqmi 1.32.4-1
libqrtr-glib 1.2.2-2
libraqm 0.10.1-1
libraw1394 2.1.2-3
librest 0.9.1-2
librsvg 2:2.56.0-1
libsamplerate 0.2.2-2
libsasl 2.1.28-4
libseccomp 2.5.4-1
libsecret 0.20.5-2
libshout 1:2.4.6-2
libsidplay 1.36.59-10
libsigc++ 2.12.0-1
libsm 1.2.4-1
libsndfile 1.2.0-1
libsodium 1.0.18-2
libsonic 0.2.0-1
libsoup 2.74.3-1
libsoup3 3.4.1-1
libsoxr 0.1.3-3
libspeechd 0.11.4-1
libsrtp 1:2.5.0-1
libssh 0.10.4-3
libssh2 1.10.0-3
libstemmer 2.2.0-2
libsysprof-capture 3.48.0-1
libtasn1 4.19.0-1
libteam 1.31-7
libthai 0.1.29-2
libtheora 1.1.1-5
libtiff 4.5.0-3
libtiff5 4.4.0-2
libtirpc 1.3.3-2
libtool 2.4.7+4+g1ec8fa28-2
libtorrent-rasterbar 1:2.0.8-3
libtraceevent 1:1.7.2-1
libtracefs 1.6.4-2
libunistring 1.1-2
libunwind 1.6.2-2
liburcu 0.14.0-1
liburing 2.3-1
libusb 1.0.26-2
libusbmuxd 2.0.2-1
libuv 1.44.2-1
libva 2.18.0-1
libvdpau 1.5-1
libverto 0.3.2-4
libvorbis 1.3.7-3
libvpx 1.13.0-1
libwacom 2.6.0-2
libwbclient 4.18.2-1
libwebp 1.3.0-2
libwireplumber 0.4.14-1
libwpe 1.14.1-2
libx11 1.8.4-1
libx86emu 3.5-3
libxau 1.0.11-2
libxaw 1.0.15-1
libxcb 1.15-2
libxcomposite 0.4.6-1
libxcrypt 4.4.33-1
libxcursor 1.2.1-3
libxcvt 0.1.2-1
libxdamage 1.1.6-1
libxdmcp 1.1.4-2
libxext 1.3.5-1
libxfixes 6.0.1-1
libxfont2 2.0.6-2
libxft 2.3.8-1
libxi 1.8-3
libxinerama 1.1.5-1
libxkbcommon 1.5.0-1
libxkbcommon-x11 1.5.0-1
libxkbfile 1.1.2-1
libxklavier 5.4-4
libxml2 2.10.4-2
libxmu 1.1.4-1
libxnvctrl-470xx 470.182.03-1
libxpm 3.5.16-1
libxpresent 1.0.1-1
libxrandr 1.5.3-1
libxrender 0.9.11-1
libxshmfence 1.3.2-1
libxslt 1.1.37-2
libxss 1.2.3-4
libxt 1.3.0-1
libxtst 1.2.4-1
libxv 1.0.12-1
libxvmc 1.0.13-2
libxxf86vm 1.1.5-1
libyaml 0.2.5-2
libyuv r2322+3aebf69d-1
licenses 20220125-2
lightdm 1:1.32.0-4
lightdm-gtk-greeter 1:2.0.8-3
lightdm-gtk-greeter-settings 1.2.2-7
lilv 0.24.20-1
linux-api-headers 6.1.9-1
linux-atm 2.5.2-8
linux-firmware 20230210.bf4115c-1
linux-firmware-bnx2x 20230210.bf4115c-1
linux-firmware-liquidio 20230210.bf4115c-1
linux-firmware-marvell 20230210.bf4115c-1
linux-firmware-mellanox 20230210.bf4115c-1
linux-firmware-nfp 20230210.bf4115c-1
linux-firmware-qcom 20230210.bf4115c-1
linux-firmware-qlogic 20230210.bf4115c-1
linux-firmware-whence 20230210.bf4115c-1
linux-xanmod-anbox 6.2.12-1
linux-xanmod-anbox-headers 6.2.12-1
livecd-sounds 1.0-2
llvm-libs 15.0.7-2
lm_sensors 1:3.6.0.r41.g31d1f125-2
lmdb 0.9.30-3
lrzip 0.651-2
lsb-release 2.0.r48.3cf5103-1
lsscsi 0.32-1
lua 5.4.4-3
lua53 5.3.6-1
luajit 2.1.0.beta3.r471.g505e2c03-1
lv2 1.18.10-1
lvm2 2.03.20-1
lz4 1:1.9.4-1
lzo 2.10-5
lzop 1.04-3
m4 1.4.19-3
mailcap 2.1.53-1
make 4.4.1-2
man-db 2.11.2-1
man-pages 6.04-1
matcha-gtk-theme-git 2023.04.03.r13.g35497ec-1
mc 4.8.29-2
mcfly 0.8.0-1
md4c 0.4.8-1
mdadm 4.2-2
media-player-info 24-2
memtest86+ 6.10-1
memtest86+-efi 6.10-1
mesa 23.0.3-1
mesa-utils 9.0.0-2
mintlocale 1.5.8-1.1
mjpegtools 2.2.1-1
mkinitcpio 35.2-1
mkinitcpio-archiso 68-1
mkinitcpio-busybox 1.35.0-1
mkinitcpio-nfs-utils 0.3-7
mkinitcpio-openswap 0.1.0-3.1
mlocate 0.26.git.20170220-7
mobile-broadband-provider-info 20230416-1
modemmanager 1.20.6-1
mpfr 4.2.0-3
mpg123 1.31.3-1
mpv 1:0.35.1-6
mtdev 1.1.6-2
mtools 1:4.0.43-1
muffin 5.6.4-1
mujs 1.3.3-1
nano 7.2-1
nbd 3.24-2
ncurses 6.4-1
ndctl 76.1-1
ndisc6 1.0.7-1
nemo 5.6.5-1
nemo-fileroller 5.6.0-1
nemo-preview 5.6.0-1
neon 0.32.5-1
net-snmp 5.9.1-5
nettle 3.8.1-1
network-manager-applet 1.32.0-1
networkmanager 1.42.6-1
nfs-utils 2.6.3-1
nfsidmap 2.6.3-1
nftables 1:1.0.7-1
nilfs-utils 2.2.9-2
nlohmann-json 3.11.2-1
nm-connection-editor 1.32.0-1
nmap 7.93-1
noto-fonts 20230401-1
noto-fonts-cjk 20220126-1
noto-fonts-emoji 20220920-1
npth 1.6-4
nspr 4.35-1
nss 3.89-1
ntfs-3g 2022.10.3-1
ntp 4.2.8.p15-3
numactl 2.0.16-1
numlockx 1.2-5
nvidia-470xx-dkms 470.182.03-2
nvidia-470xx-settings 470.182.03-1
nvidia-470xx-support v2022_07-05
nvidia-470xx-utils 470.182.03-2
nvidia-optimus-support v2023_01-15
nvidia-prime 1.0-4
nvme-cli 2.4-1
oath-toolkit 2.6.7-1
ocl-icd 2.3.1-1
oniguruma 6.9.8-1
onlyoffice-bin 7.3.3-1
open-vm-tools 6:12.2.0-1
openal 1.23.1-1
opencl-nvidia-470xx 470.182.03-2
openconnect 1:9.01-2
opencore-amr 0.1.6-1
openexr 3.1.7-1
openjpeg2 2.5.0-2
openmpi 4.1.5-1
openpmix 4.2.3-2
openssh 9.3p1-1
openssl 3.0.8-1
openvpn 2.6.3-1
optimus-manager 1.4-4.1
optimus-manager-qt 1.6.9-1.1
opus 1.4-1
orc 0.4.33-1
os-prober-btrfs 1.79-5
p11-kit 0.24.1-1
p7zip 1:17.05-1
pacman 6.0.2-6
pacman-contrib 1.9.0-1
pacman-mirrorlist 20230410-1
pacman-static 6.0.2-2
pahole 1:1.24+r29+g02d67c5-1
pam 1.5.2-2
pamac-aur 10.5.1-1
pambase 20221020-1
pango 1:1.50.14-1
pangomm 2.46.3-1
papirus-icon-theme 20230301-1
partclone 0.3.23-1
parted 3.6-1
partimage 0.6.9-14
paru 1.11.1-1.3
patch 2.7.6-9
pavucontrol 1:5.0+r61+gee77d86-2
pbzip2 1.1.13-3
pcaudiolib 1.2-2
pciutils 3.9.0-2
pcre 8.45-3
pcre2 10.42-2
pcsclite 1.9.9-3
pentract-grub-theme 1.0-1
perl 5.36.0-3
perl-clone 0.46-1
perl-encode-locale 1.05-10
perl-error 0.17029-4
perl-file-listing 6.15-2
perl-html-parser 3.81-1
perl-html-tagset 3.20-13
perl-http-cookies 6.10-3
perl-http-daemon 6.16-1
perl-http-date 6.05-6
perl-http-message 6.44-1
perl-http-negotiate 6.01-11
perl-io-html 1.004-3
perl-libwww 6.67-1
perl-lwp-mediatypes 6.04-3
perl-mailtools 2.21-6
perl-net-http 6.22-2
perl-timedate 2.33-4
perl-try-tiny 0.31-2
perl-uri 5.17-1
perl-www-robotrules 6.02-11
perl-xml-parser 2.46-4
perl-xml-writer 0.900-1
persepolis 3.2.0-7
pfetch-git r432.a906ff8-1
pigz 2.7-3
pinentry 1.2.1-1
pipewire 1:0.3.70-1
pipewire-alsa 1:0.3.70-1
pipewire-audio 1:0.3.70-1
pipewire-jack 1:0.3.70-1
pipewire-pulse 1:0.3.70-1
pix 2.8.9-1
pixman 0.42.2-1
pixz 1.0.7-4
pkcs11-helper 1.29.0-2
pkgconf 1.8.1-1
plasma-framework 5.105.0-1
playerctl 2.4.1-3
plymouth 22.02.122-7
polkit 122-1
polkit-gnome 0.105-10
polkit-qt5 0.114.0-1
poppler 23.03.0-1
poppler-data 0.4.12-1
poppler-glib 23.03.0-1
popt 1.19-1
portaudio 1:19.7.0-2
ppp 2.4.9-3
pptpclient 1.10.0-3
preload 0.6.4-7
prelockd 0.9-2.1
procps-ng 3.3.17-1
psmisc 23.6-1
pv 1.6.20-2
python 3.10.10-1
python-atspi 2.46.0-1
python-attrs 22.2.0-1
python-autocommand 2.2.2-1
python-automat 22.10.0-1
python-cairo 1.23.0-3
python-cffi 1.15.1-1
python-chardet 5.1.0-1
python-click 8.1.3-1
python-configobj 5.0.6.r110.g3e2f4cc-3
python-constantly 15.1.0-11
python-contourpy 1.0.7-1
python-cryptography 40.0.1-1
python-cycler 0.11.0-1
python-dateutil 2.8.2-4
python-distro 1.8.0-2
python-fastjsonschema 2.16.3-1
python-fonttools 4.39.3-1
python-geoip 1.3.2-13
python-gobject 3.44.1-1
python-hyperlink 21.0.0-4
python-idna 3.4-1
python-ifaddr 0.2.0-1
python-incremental 22.10.0-1
python-inflect 6.0.4-1
python-injector 0.20.1-2.1
python-jaraco.context 4.3.0-1
python-jaraco.functools 3.6.0-1
python-jaraco.text 3.11.1-1
python-jinja 1:3.1.2-2
python-jsonpatch 1.32-3
python-jsonpointer 2.3-1
python-jsonschema 4.17.3-1
python-kiwisolver 1.4.4-2
python-mako 1.2.4-1
python-manimpango 0.4.3-1
python-markdown 3.4.3-1
python-markupsafe 2.1.2-1
python-matplotlib 3.7.1-3
python-more-itertools 9.1.1-1
python-netifaces 0.11.0-3
python-numpy 1.24.2-1
python-oauthlib 3.2.2-1
python-ordered-set 4.1.0-1
python-packaging 23.0-1
python-pam 2.0.2-1
python-peewee 3.16.1-1
python-pexpect 4.8.0-6
python-pillow 9.4.0-2
python-platformdirs 3.2.0-1
python-ply 3.11-10
python-psutil 5.9.4-1
python-ptyprocess 0.7.0-4
python-py3nvml 0.2.7-1.1
python-pyasn1 0.4.8-7
python-pyasn1-modules 0.2.8-6
python-pycparser 2.21-3
python-pycups 2.0.1-5
python-pycurl 7.45.2-1
python-pydantic 1.10.7-2
python-pyinotify 0.9.6-11
python-pyopenssl 23.1.1-1
python-pyparsing 3.0.9-1
python-pyqt5 5.15.9-1
python-pyqt5-sip 12.12.1-1
python-pyrsistent 0.19.3-1
python-pyserial 3.5-4
python-pytz 2022.7.1-1
python-pyxdg 0.28-1
python-rencode 1.0.6-7
python-requests 2.28.2-1
python-rx 3.2.0-3
python-service-identity 21.1.0-4
python-setproctitle 1.3.2-1
python-setuptools 1:67.6.1-1
python-six 1.16.0-6
python-tinycss2 1.2.1-1
python-tomli 2.0.1-1
python-trove-classifiers 2023.4.18-1
python-twisted 22.10.0-1
python-typing_extensions 4.5.0-1
python-urllib3 1.26.13-1
python-validate-pyproject 0.12.2-1
python-webencodings 0.5.1-9
python-xapp 2.4.0-1
python-xlib 0.33-1
python-yaml 6.0-1
python-zope-interface 6.0-1
qca-qt5 2.3.5-2
qhull 2020.2-4
qpdf 11.3.0-1
qrencode 4.1.1-2
qt5-base 5.15.9+kde+r151-1
qt5-declarative 5.15.9+kde+r23-1
qt5-graphicaleffects 5.15.9-1
qt5-multimedia 5.15.9+kde+r3-1
qt5-quickcontrols 5.15.9-1
qt5-quickcontrols2 5.15.9+kde+r5-1
qt5-speech 5.15.9+kde+r1-1
qt5-svg 5.15.9+kde+r7-1
qt5-translations 5.15.9-1
qt5-wayland 5.15.9+kde+r55-1
qt5-x11extras 5.15.9-1
qt5-xmlpatterns 5.15.9-1
raptor 2.0.16-2
rav1e 0.6.3-1
readline 8.2.001-2
redshift 1.12-6
reflector 2021.11-6
reiserfsprogs 3.6.27-4
rhythmbox 3.4.6-1
rp-pppoe 3.15-2
rpcbind 1.2.6-3
rsync 3.2.7-4
rtmpdump 1:2.4.r99.f1b83c1-2
rubberband 3.2.1-1
run-parts 5.5-1
samba 4.18.2-1
sane 1.2.1-4
sane-airscan 0.99.27-1
sbc 2.0-1
scanner-support 1-4
screen 4.9.0-1
sdl2 2.26.5-1
sdparm 1.12-1
sed 4.9-3
serd 0.30.16-1
sg3_utils 1.47-1
shaderc 2023.3-1
shadow 4.13-2
shared-mime-info 2.2+13+ga2ffb28-1
simple-scan 44.0-1
slang 2.3.3-2
smartmontools 7.3-1
smbclient 4.18.2-1
sof-firmware 2.2.4-1
solid 5.105.0-1
sonnet 5.105.0-1
sord 0.16.14-1
sound-theme-freedesktop 0.8-5
soundtouch 2.3.2-1
spandsp 0.0.6-4
spdlog 1.11.0-2
speex 1.2.1-1
speexdsp 1.2.1-1
spice 0.15.1-2
spice-protocol 0.14.4-1
spirv-tools 2022.4-1
sqlite 3.41.2-1
squashfs-tools 4.6.1-1
sratom 0.6.14-1
srt 1.5.1-3
sshfs 3.7.3-1
starship 1.14.2-1
startup-notification 0.12-7
sticky-git 1.14.r4.g7760fb1-1
stoken 0.92-4
sudo 1.9.13.p3-1
svt-av1 1.4.1-1
svt-hevc 1.5.1-2
syndication 5.105.0-1
sysfsutils 2.1.1-1
syslinux 6.04.pre2.r11.gbf6db5b4-3
system-config-printer 1.5.18-1
systembus-notify 1.1-2
systemd 253.3-3
systemd-libs 253.3-3
systemd-resolvconf 253.3-3
systemd-sysvcompat 253.3-3
taglib 1.13-1
talloc 2.4.0-2
tar 1.34-2
tcl 8.6.13-1
tcpdump 4.99.3-1
tdb 1.4.8-1
testdisk 7.1-5
tevent 1:0.14.1-1
texinfo 7.0.3-1
thin-provisioning-tools 1.0.3-1
thunderbird 102.10.0-1
timeshift 22.11.2-1
timeshift-autosnap 0.10-1
timezonemap 0.4.5.2-1
tinycompress 1.2.8-2
totem-pl-parser 3.26.6-2
tpm2-tss 3.2.0-3
tracker3 3.5.0-1
tree 2.1.0-1
tslib 1.22-1
ttf-carlito 20130920-6
ttf-dejavu 2.37+18+g9b5d1b2f-3
ttf-fira-sans 1:4.301-2
ttf-hack 3.003-3
ttf-liberation 2.1.5-1
ttf-ms-fonts 2.0-12
twolame 0.4.0-2
tzdata 2023c-1
uchardet 0.0.8-1
udftools 2.3-1
udisks2 2.9.4-1
ufw 0.36.1-3
unarchiver 1.10.7-8
unrar 1:6.2.6-1
unzip 6.0-19
upd72020x-fw 1:1.0.0-1
update-grub 0.0.1-7.1
upower 1.90.0-3
uriparser 0.9.7-1
usb_modeswitch 2.6.1-3
usbmuxd 1.1.1-2
usbutils 015-2
util-linux 2.38.1-3
util-linux-libs 2.38.1-3
v4l-utils 1.24.1-1
vid.stab 1.1.1-1
virtualbox-guest-utils 7.0.8-1
vmaf 2.3.1-1
volume_key 0.3.12-7
vpnc 1:0.5.3.r526.r213-1
vte-common 0.72.1-1
vte3 0.72.1-1
vulkan-icd-loader 1.3.245-1
wavpack 5.6.0-1
wayland 1.22.0-1
wayland-protocols 1.31-1
wd719x-firmware 1-7
webkit2gtk 2.40.1-1
webkit2gtk-4.1 2.40.1-1
webp-pixbuf-loader 0.2.4-1
webrtc-audio-processing 0.3.1-3
wget 1.21.3-1
which 2.21-6
wildmidi 0.4.5-1
wireless-regdb 2023.02.13-1
wireless_tools 30.pre9-3
wireplumber 0.4.14-1
wmctrl 1.07-6
woff2 1.0.2-4
wpa_supplicant 2:2.10-8
wpebackend-fdo 1.14.2-1
wvdial 1.61-8
wvstreams 4.6.1-20
x264 3:0.164.r3095.baee400-4
x265 3.5-3
xapp 2.4.3-1
xautolock 2.2-6
xbindkeys 1.8.7-4
xcape 1.2-4
xcb-proto 1.15.2-2
xcb-util 0.4.1-1
xcb-util-image 0.4.1-2
xcb-util-keysyms 0.4.1-4
xcb-util-renderutil 0.3.10-1
xcb-util-wm 0.4.2-1
xcursor-vanilla-dmz 0.4.5-2
xdg-dbus-proxy 0.1.4-1
xdg-user-dirs 0.18-1
xdg-user-dirs-gtk 0.11-1
xdg-utils 1.1.3+25+g8ae0263-1
xdotool 3.20211022.1-1
xed 3.2.8-1
xf86-input-evdev 2.10.6-3
xf86-input-libinput 1.3.0-1
xf86-input-synaptics 1.9.2-1
xf86-input-vmmouse 13.2.0-1
xf86-input-void 1.4.2-1
xf86-video-amdgpu 23.0.0-1
xf86-video-ati 1:19.1.0.r15.g7a6a34af-1
xf86-video-dummy 0.4.0-1
xf86-video-fbdev 0.5.0-3
xf86-video-intel 1:2.99.917+923+gb74b67f0-1
xf86-video-nouveau 1.0.17-2
xf86-video-openchrome 0.6.0.r798.g0c75274-2
xf86-video-qxl 0.1.5.r23.g52e9752-2
xf86-video-vesa 2.6.0-1
xf86-video-vmware 13.4.0-1
xf86-video-voodoo 1.2.6-1
xfsprogs 6.2.0-1
xkeyboard-config 2.38-1
xl2tpd 1.3.18-1
xmlsec 1.2.37-1
xorg-bdftopcf 1.1.1-1
xorg-docs 1.7.2-2
xorg-font-util 1.4.0-1
xorg-fonts-100dpi 1.0.4-2
xorg-fonts-75dpi 1.0.4-1
xorg-fonts-alias-100dpi 1.0.5-1
xorg-fonts-alias-75dpi 1.0.5-1
xorg-fonts-encodings 1.0.7-1
xorg-iceauth 1.0.9-1
xorg-mkfontscale 1.2.2-1
xorg-server 21.1.8-1
xorg-server-common 21.1.8-1
xorg-server-devel 21.1.8-1
xorg-server-xephyr 21.1.8-1
xorg-server-xnest 21.1.8-1
xorg-server-xvfb 21.1.8-1
xorg-sessreg 1.1.3-1
xorg-setxkbmap 1.3.3-2
xorg-smproxy 1.0.7-1
xorg-util-macros 1.20.0-2
xorg-x11perf 1.6.2-1
xorg-xauth 1.1.2-1
xorg-xbacklight 1.2.3-3
xorg-xcmsdb 1.0.6-1
xorg-xcursorgen 1.0.8-1
xorg-xdpyinfo 1.3.3-4
xorg-xdriinfo 1.0.7-1
xorg-xev 1.2.5-1
xorg-xgamma 1.0.7-1
xorg-xhost 1.0.9-1
xorg-xinput 1.6.3-3
xorg-xkbcomp 1.4.6-1
xorg-xkbevd 1.1.5-1
xorg-xkbutils 1.0.5-1
xorg-xkill 1.0.6-1
xorg-xlsatoms 1.1.4-1
xorg-xlsclients 1.1.5-1
xorg-xmessage 1.0.6-1
xorg-xmodmap 1.0.11-1
xorg-xpr 1.1.0-1
xorg-xprop 1.2.6-1
xorg-xrandr 1.5.2-1
xorg-xrdb 1.2.1-1
xorg-xrefresh 1.0.7-1
xorg-xset 1.2.5-1
xorg-xsetroot 1.1.3-1
xorg-xvinfo 1.1.5-1
xorg-xwayland 23.1.1-1
xorg-xwd 1.0.8-1
xorg-xwininfo 1.1.6-1
xorg-xwud 1.0.6-1
xorgproto 2022.2-1
xplc 0.3.13-10
xreader 3.6.3-1
xvidcore 1.3.7-2
xxhash 0.8.1-4
xz 5.4.2-1
yaml-cpp 0.7.0-2
youtube-dl 2021.12.17-1
zbar 0.23.90-1
zenity 3.44.0-3
zeromq 4.3.4-2
zimg 3.0.4-1
zip 3.0-10
zlib 1:1.2.13-2
zsh 5.9-3
zsh-autosuggestions 0.7.0-2
zsh-completions 0.34.0-4
zsh-history-substring-search 1.0.2-2
zsh-syntax-highlighting 0.7.1-1
zstd 1.5.5-1
zvbi 0.2.41-1
zxing-cpp 2.0.0-2

### NSi ###
a52dec 0.7.4-12
aalib 1.4rc5-15
accountsservice 23.13.9-1
acl 2.3.1-3
acpi_call-dkms 1.2.2-1
adobe-source-code-pro-fonts 2.042u+1.062i+1.026vf-1
adwaita-cursors 43-2
adwaita-icon-theme 43-2
aic94xx-firmware 30-9
alacritty 0.12.0-1
alsa-card-profiles 1:0.3.70-1
alsa-lib 1.2.8-1
alsa-topology-conf 1.2.5.1-3
alsa-ucm-conf 1.2.8-1
alsa-utils 1.2.8-1
amd-ucode 20230210.bf4115c-1
ananicy-cpp 1.0.2-1
ananicy-rules 1.r129.8ac5d97-1
anita-plymouth v23.01-23
aom 3.6.0-1
appstream-glib 0.8.2-2
aptpac 3.3.0-1
arch-install-scripts 28-1
archlinux-appstream-data-pamac 1:20230421-1
archlinux-keyring 20230320-1
argon2 20190702-4
aria2 1.36.0-1
asp 8-1
at-spi2-core 2.48.0-2
atkmm 2.28.3-1
attica 5.105.0-1
attr 2.5.1-3
audit 3.1-1
autoconf 2.71-4
automake 1.16.5-2
autorandr 1.13.3-1
avahi 0.8+22+gfd482a7-3
b43-fwcutter 019-4
base 3-1
base-devel 1-1
bash 5.1.016-3
bash-completion 2.11-3
bat 0.23.0-3
bbswitch-dkms 0.8-586
bc 1.07.1-4
beautyline 1:20230402-1
bind 9.18.14-1
binutils 2.40-4
bison 3.8.2-5
blas 3.11.0-2
bleachbit 4.4.2-3
blueman 2.3.5-1
bluez 5.66-1
bluez-libs 5.66-1
bluez-utils 5.66-1
boost 1.81.0-3
boost-libs 1.81.0-3
botan 2.19.3-1
brave-bin 1:1.50.125-1
breeze 5.27.4-1
breeze-icons 5.105.0-1
brltty 6.5-3
brotli 1.0.9-10
btrfs-progs 6.2.2-1
bubblewrap 0.8.0-1
bzip2 1.0.8-5
c-ares 1.19.0-1
ca-certificates 20220905-1
ca-certificates-mozilla 3.89-1
ca-certificates-utils 20220905-1
cairo 1.17.8-2
cairomm 1.14.4-1
calamares 3.2.61-1
cantarell-fonts 1:0.303.1-1
caribou 0.4.21+75+g8ad9883-3
cblas 3.11.0-2
cdparanoia 10.2-8
chaotic-keyring 20220803-1
chaotic-mirrorlist 20230424-1
cheese 43.0-1
chromaprint 1.5.1-7
cifs-utils 7.0-3
cinnamon 5.6.8-1
cinnamon-control-center 5.6.1-1
cinnamon-desktop 5.6.2-1
cinnamon-menus 5.6.0-1
cinnamon-screensaver 5.6.3-1
cinnamon-session 5.6.0-1
cinnamon-settings-daemon 5.6.2-1
cinnamon-translations 5.6.1-1
cjs 5.6.1-1
ckbcomp 1.210-1
clipit 1.4.5-3.2
clonezilla 3.35.2-5
cloud-init 23.1.1-1
clutter 1.26.4-2
clutter-gst 3.0.27-4
clutter-gtk 1.8.4-3
cogl 1.22.8-2
colord 1.4.6-1
colord-sane 1.4.6-1
coreutils 9.3-1
cracklib 2.9.8-1
cronie 1.6.1-1
cryptsetup 2.6.1-3
cups 1:2.4.2-6
cups-filters 1.28.17-2
curl 8.0.1-1
darkhttpd 1.14-1
dav1d 1.1.0-1
db5.3 5.3.28-2
dbus 1.14.6-2
dbus-glib 0.112-2
dbus-python 1.2.18-4
dconf 0.40.0-2
ddrescue 1.27-1
debugedit 5.0-5
default-cursors 2-1
deluge 1:2.1.1-3
deluge-gtk 1:2.1.1-3
desktop-file-utils 0.26-2
device-mapper 2.03.20-1
dhclient 4.4.3.P1-1
dhcpcd 9.4.1-1
diffutils 3.9-1
ding-libs 0.6.2-1
dkms 3.0.10-1
dmraid 1.0.0.rc16.3-14
dnsmasq 2.89-1
dnssec-anchors 20190629-3
dosfstools 4.2-3
double-conversion 3.2.1-1
drbl 2.30.5-3
duktape 2.7.0-5
e2fsprogs 1.47.0-1
earlyoom 1.7-1
ecryptfs-utils 111-7
edk2-shell 202211-3
efibootmgr 18-2
efivar 38-3
egl-wayland 2:1.1.11-4
eglexternalplatform 1.1-2
elementary-wallpapers 7.0.0-1
ell 0.56-1
emote 3.0.3-4.1
enchant 2.3.4-1
espeak-ng 1.51.1-2
espeakup 0.90-2
ethtool 1:6.2-1
exempi 2.6.3-1
exfatprogs 1.2.0-1
expat 2.5.0-1
f2fs-tools 1.16.0-1
faac 1.30-4
faad2 2.10.1-1
fakeroot 1.31-2
fatresize 1.1.0-1
ffmpeg 2:6.0-4
ffmpegthumbs 23.04.0-1
fftw 3.3.10-4
file 5.44-3
file-roller 43.0-1
filesystem 2023.01.31-1
findutils 4.9.0-3
flac 1.4.2-1
flex 2.6.4-5
fluidsynth 2.3.2-1
fmt 9.1.0-4
fontconfig 2:2.14.2-1
frameworkintegration 5.105.0-1
freetype2 2.13.0-1
frei0r-plugins 2.2.0-1
fribidi 1.0.12-1
fsarchiver 0.8.7-1
fuse-common 3.14.1-1
fuse2 2.9.9-4
fuse3 3.14.1-1
fuseiso 20070708-8
fzf 0.39.0-1
galculator 2.1.4-8
gavl 1.4.0-7
gawk 5.2.1-2
gc 8.2.2-1
gcc 12.2.1-2
gcc-ada 12.2.1-2
gcc-libs 12.2.1-2
gcr 3.41.1-3
gcr-4 4.0.0-1
gd 2.3.3-6
gdbm 1.23-2
gdk-pixbuf-xlib 2.40.2-2
gdk-pixbuf2 2.42.10-2
geoclue 2.7.0-1
geoip 1.6.12-2
geoip-database 20230414-1
geoip-database-extra 20230414-1
gestures 0.3.1-1.1
gettext 0.21.1-5
ghostscript 10.01.1-1
giflib 5.2.1-2
git 2.40.0-1
gjs 2:1.74.2-1
glib-networking 1:2.76.0-1
glib2 2.76.1-1
glibc 2.37-2
glibmm 2.66.6-1
glslang 12.1.0-1
gmp 6.2.1-2
gnome-backgrounds 43.1-1
gnome-desktop 1:43.2-1
gnome-desktop-common 1:43.2-1
gnome-online-accounts 3.46.0-1
gnome-screenshot 41.0+r25+g45f08f0-1
gnome-sound-recorder 42.0-1
gnome-system-monitor 44.0-1
gnome-themes-extra 3.28+r6+g45b1d457-1
gnome-video-effects 0.5.0+4+g9554041-2
gnu-netcat 0.7.1-9
gnupg 2.2.41-1
gnustep-base 1.29.0-1
gnutls 3.8.0-1
gobject-introspection 1.76.1-1
gobject-introspection-runtime 1.76.1-1
gpart 0.3-4
gparted 1.5.0-1
gperftools 2.10-1
gpgme 1.20.0-1
gpm 1.20.7.r38.ge82d1a6-4
gptfdisk 1.0.9-2
graphene 1.10.8-1
graphite 1:1.3.14-3
grep 3.10-1
grilo 0.3.15-2
groff 1.22.4-10
grub 2:2.06.r499.ge67a551a4-1
grub-btrfs 4.12-2
gsettings-desktop-schemas 44.0-1
gsm 1.0.22-1
gsmartcontrol 1.1.4-1
gsound 1.0.3-2
gspell 1.12.0-2
gssdp 1.6.2-1
gssproxy 0.9.1-2
gst-libav 1.22.1-2
gst-plugins-bad 1.22.1-2
gst-plugins-bad-libs 1.22.1-2
gst-plugins-base 1.22.1-2
gst-plugins-base-libs 1.22.1-2
gst-plugins-good 1.22.1-2
gst-plugins-ugly 1.22.1-2
gstreamer 1.22.1-2
gtk-backgrounds-default 23.04-21
gtk-engine-murrine 0.98.2-4
gtk-engines 2.21.0-5
gtk-update-icon-cache 1:4.10.3-1
gtk2 2.24.33-3
gtk3 1:3.24.37-1
gtk4 1:4.10.3-1
gtkmm3 3.24.7-1
gtksourceview4 4.8.4-1
gufw 22.04-1
guile 3.0.9-1
gupnp 1:1.6.3-1
gupnp-igd 1.6.0-1
gvfs 1.50.4-1
gvfs-afc 1.50.4-1
gvfs-goa 1.50.4-1
gvfs-google 1.50.4-1
gvfs-gphoto2 1.50.4-1
gvfs-mtp 1.50.4-1
gvfs-nfs 1.50.4-1
gvfs-smb 1.50.4-1
gwe 0.15.5-3.1
gzip 1.12-2
hardinfo 0.5.1.816.g877ea2b-2.1
harfbuzz 7.1.0-1
harfbuzz-icu 7.1.0-1
haveged 1.9.18-1
hdparm 9.65-1
hicolor-icon-theme 0.17-3
hidapi 0.13.1-2
highway 1.0.4-1
htop 3.2.2-1
http-parser 2.9.4-1
hunspell 1.7.2-1
hwdata 0.369-1
hwinfo 22.2-2
hwloc 2.9.1-1
hyphen 2.8.8-5
iana-etc 20230405-1
icu 72.1-2
ijs 0.35-5
imagemagick 7.1.1.7-1
imath 3.1.7-1
imlib2 1.11.0-1
imwheel 1.0.0pre12-6
iniparser 4.1-4
intel-ucode 20230214-1
inxi 3.3.26.1-1
ipp-usb 0.9.23-1
iproute2 6.2.0-2
iptables 1:1.8.9-1
iputils 20221126-1
irqbalance 1.9.2-1
irssi 1.4.4-1
iso-codes 4.13.0-1
iso-flag-png 1.0.2-1
iw 5.19-1
iwd 2.4-1
jansson 2.14-2
jbig2dec 0.19-1
jemalloc 1:5.3.0-1
jfsutils 1.1.15-8
jq 1.6-4
js102 102.10.0-1
js78 78.15.0-4
json-c 0.16-1
json-glib 1.6.6-2
kactivities 5.105.0-1
karchive 5.105.0-1
kauth 5.105.0-1
kbd 2.5.1-1
kbookmarks 5.105.0-1
kcodecs 5.105.0-1
kcompletion 5.105.0-1
kconfig 5.105.0-1
kconfigwidgets 5.105.0-1
kcoreaddons 5.105.0-1
kcrash 5.105.0-1
kdbusaddons 5.105.0-1
kdeclarative 5.105.0-1
kdecoration 5.27.4-1
kded 5.105.0-1
keyutils 1.6.3-1
kglobalaccel 5.105.0-1
kguiaddons 5.105.0-1
ki18n 5.105.0-1
kiconthemes 5.105.0-1
kio 5.105.0-1
kirigami2 5.105.0-1
kitemviews 5.105.0-1
kjobwidgets 5.105.0-1
kmod 30-3
knewstuff 5.105.0-1
knotifications 5.105.0-1
kpackage 5.105.0-1
kpmcore 23.04.0-1
krb5 1.20.1-1
kservice 5.105.0-1
ktextwidgets 5.105.0-1
kwallet 5.105.0-1
kwayland 5.105.0-1
kwidgetsaddons 5.105.0-1
kwindowsystem 5.105.0-1
kxmlgui 5.105.0-1
l-smash 2.14.5-3
lame 3.100-4
lapack 3.11.0-2
lbzip2 2.5-5
lcms2 2.15-1
ldb 2:2.7.2-1
ldns 1.8.3-2
less 1:608-2
lib32-brotli 1.0.9-5
lib32-bzip2 1.0.8-3
lib32-curl 8.0.1-1
lib32-e2fsprogs 1.47.0-1
lib32-expat 2.5.0-2
lib32-gcc-libs 12.2.1-2
lib32-glibc 2.37-2
lib32-icu 72.1-2
lib32-keyutils 1.6.3-1
lib32-krb5 1.20.1-1
lib32-libdrm 2.4.115-1
lib32-libelf 0.189-1
lib32-libffi 3.4.4-1
lib32-libglvnd 1.6.0-1
lib32-libidn2 2.3.4-2
lib32-libldap 2.6.4-1
lib32-libpciaccess 0.17-1
lib32-libpsl 0.21.2-1
lib32-libssh2 1.10.0-2
lib32-libunistring 1.1-1
lib32-libunwind 1.6.2-2
lib32-libx11 1.8.4-1
lib32-libxau 1.0.11-1
lib32-libxcb 1.15-2
lib32-libxcrypt 4.4.33-1
lib32-libxdamage 1.1.6-1
lib32-libxdmcp 1.1.4-1
lib32-libxext 1.3.5-1
lib32-libxfixes 6.0.0-2
lib32-libxml2 2.10.4-2
lib32-libxshmfence 1.3.2-1
lib32-libxxf86vm 1.1.5-1
lib32-llvm-libs 15.0.7-1
lib32-lm_sensors 1:3.6.0.r41.g31d1f125-2
lib32-mesa 23.0.3-1
lib32-ncurses 6.4-1
lib32-nvidia-utils 530.41.03-1
lib32-opencl-nvidia 530.41.03-1
lib32-openssl 1:3.0.8-1
lib32-vulkan-icd-loader 1.3.245-1
lib32-wayland 1.22.0-1
lib32-xz 5.4.2-1
lib32-zlib 1.2.13-2
lib32-zstd 1.5.5-1
libadwaita 1:1.3.1-1
libaio 0.3.113-2
libappindicator-gtk3 12.10.0.r298-1
libarchive 3.6.2-2
libass 0.17.1-1
libassuan 2.5.5-2
libasyncns 1:0.8+r3+g68cd5af-2
libatasmart 0.19-5
libavc1394 0.5.4-5
libavif 0.11.1-1
libavtp 0.2.0-2
libblockdev 2.28-1
libbluray 1.3.4-1
libbpf 1.1.0-1
libbs2b 3.1.0-8
libbsd 0.11.7-1
libbytesize 2.7-1
libcaca 0.99.beta20-1
libcacard 2.7.0-2
libcamera 0.0.4-4
libcamera-ipa 0.0.4-4
libcanberra 1:0.30+r2+gc0620e4-3
libcap 2.68-1
libcap-ng 0.8.3-1
libcdio 2.1.0-3
libcdio-paranoia 10.2+2.0.1-2
libcheese 43.0-1
libcloudproviders 0.3.1+r8+g3a229ee-1
libcolord 1.4.6-1
libcroco 0.6.13-2
libcups 1:2.4.2-6
libdaemon 0.14-5
libdatrie 0.2.13-2
libdazzle 3.44.0-1
libdbusmenu-glib 16.04.0-5
libdbusmenu-gtk3 16.04.0-5
libdbusmenu-qt5 0.9.3+16.04.20160218-6
libdc1394 2.2.6-2
libdca 0.0.7-1
libde265 1.0.11-2
libdecor 0.1.1-2
libdnet 1.16.4-1
libdrm 2.4.115-1
libdv 1.0.0-10
libdvdnav 6.1.1-1
libdvdread 6.1.3-1
libedit 20221030_3.1-1
libelf 0.189-1
libepoxy 1.5.10-1
libevdev 1.13.0-1
libevent 2.1.12-4
libexif 0.6.24-1
libfdk-aac 2.0.2-1
libffi 3.4.4-1
libfontenc 1.1.7-1
libfreeaptx 0.1.1-1
libgcrypt 1.10.2-1
libgdata 0.18.1-2
libgee 0.20.6-1
libgirepository 1.76.1-1
libgit2 1:1.6.4-1
libglvnd 1.6.0-1
libgme 0.6.3-2
libgnomekbd 1:3.28.1-1
libgpg-error 1.47-1
libgphoto2 2.5.30-2
libgsf 1.14.50-1
libgtop 2.40.0+2+g31db82ef-2
libgudev 237-2
libgusb 0.4.5-1
libhandy 1.8.2-1
libheif 1.15.2-1
libical 3.0.16-4
libice 1.1.1-2
libidn 1.41-1
libidn2 2.3.4-3
libiec61883 1.2.0-7
libieee1284 0.2.11-14
libimagequant 4.1.1-1
libimobiledevice 1.3.0-6
libindicator-gtk3 12.10.1-10
libinih 56-1
libinput 1.23.0-1
libinput-gestures 2.74-1
libinstpatch 1.1.6-2
libisl 0.26-1
libjpeg-turbo 2.1.5.1-1
libjxl 0.8.1-1
libkate 0.4.1-9
libkeybinder3 0.3.2-4
libksba 1.6.3-1
liblc3 1.0.2-1
libldac 2.0.2.3-1
libldap 2.6.4-2
liblouis 3.25.0-1
liblqr 0.4.2-3
liblrdf 0.6.1-4
libltc 1.3.2-1
libmanette 0.2.6-4
libmaxminddb 1.7.1-1
libmbim 1.28.4-1
libmd 1.0.4-1
libmfx 23.1.6-1
libmicrodns 0.2.0-1
libmm-glib 1.20.6-1
libmnl 1.0.5-1
libmodplug 0.8.9.0-5
libmpc 1.3.1-1
libmpcdec 1:0.1+r475-3
libmpeg2 0.5.1-7
libmspack 1:0.11alpha-1
libmtp 1.1.20-1
libmusicbrainz5 5.1.0-5
libmysofa 1.3.1-2
libndp 1.8-1
libnetfilter_conntrack 1.0.9-1
libnewt 0.52.23-1
libnfnetlink 1.0.2-1
libnfs 5.0.2-1
libnftnl 1.2.5-1
libnghttp2 1.52.0-2
libnice 0.1.21-2
libnl 3.7.0-3
libnm 1.42.6-1
libnma 1.10.6-1
libnma-common 1.10.6-1
libnotify 0.8.2-1
libnsl 2.0.0-3
liboauth 1:1.0.3+r16+gc26f038-1
libogg 1.3.5-1
libomxil-bellagio 0.9.3-4
libopenmpt 0.6.10-1
libopenraw 0.3.4-1
libotr 4.1.1-3
libp11-kit 0.24.1-1
libpamac-aur 11.5.2-1
libpaper 2.1.0-1
libpcap 1.10.3-1
libpciaccess 0.17-1
libpeas 1.34.0-1
libpgm 5.3.128-2
libpipeline 1.5.7-1
libpipewire 1:0.3.70-1
libplacebo 5.229.2-2
libplist 2.2.0-6
libpng 1.6.39-1
libportal 0.6-1
libportal-gtk3 0.6-1
libproxy 0.4.18-2
libpsl 0.21.2-1
libpulse 16.1-6
libpwquality 1.4.5-1
libqmi 1.32.4-1
libqrtr-glib 1.2.2-2
libraqm 0.10.1-1
libraw1394 2.1.2-3
librest 0.9.1-2
librsvg 2:2.56.0-1
libsamplerate 0.2.2-2
libsasl 2.1.28-4
libseccomp 2.5.4-1
libsecret 0.20.5-2
libshout 1:2.4.6-2
libsidplay 1.36.59-10
libsigc++ 2.12.0-1
libsm 1.2.4-1
libsndfile 1.2.0-1
libsodium 1.0.18-2
libsonic 0.2.0-1
libsoup 2.74.3-1
libsoup3 3.4.1-1
libsoxr 0.1.3-3
libspeechd 0.11.4-1
libsrtp 1:2.5.0-1
libssh 0.10.4-3
libssh2 1.10.0-3
libstemmer 2.2.0-2
libsysprof-capture 3.48.0-1
libtasn1 4.19.0-1
libteam 1.31-7
libthai 0.1.29-2
libtheora 1.1.1-5
libtiff 4.5.0-3
libtiff5 4.4.0-2
libtirpc 1.3.3-2
libtool 2.4.7+4+g1ec8fa28-2
libtorrent-rasterbar 1:2.0.8-3
libtraceevent 1:1.7.2-1
libtracefs 1.6.4-2
libunistring 1.1-2
libunwind 1.6.2-2
liburcu 0.14.0-1
liburing 2.3-1
libusb 1.0.26-2
libusbmuxd 2.0.2-1
libuv 1.44.2-1
libva 2.18.0-1
libvdpau 1.5-1
libverto 0.3.2-4
libvorbis 1.3.7-3
libvpx 1.13.0-1
libwacom 2.6.0-2
libwbclient 4.18.2-1
libwebp 1.3.0-2
libwireplumber 0.4.14-1
libwpe 1.14.1-2
libx11 1.8.4-1
libx86emu 3.5-3
libxau 1.0.11-2
libxaw 1.0.15-1
libxcb 1.15-2
libxcomposite 0.4.6-1
libxcrypt 4.4.33-1
libxcursor 1.2.1-3
libxcvt 0.1.2-1
libxdamage 1.1.6-1
libxdmcp 1.1.4-2
libxext 1.3.5-1
libxfixes 6.0.1-1
libxfont2 2.0.6-2
libxft 2.3.8-1
libxi 1.8-3
libxinerama 1.1.5-1
libxkbcommon 1.5.0-1
libxkbcommon-x11 1.5.0-1
libxkbfile 1.1.2-1
libxklavier 5.4-4
libxml2 2.10.4-2
libxmu 1.1.4-1
libxnvctrl 530.41.03-1
libxpm 3.5.16-1
libxpresent 1.0.1-1
libxrandr 1.5.3-1
libxrender 0.9.11-1
libxshmfence 1.3.2-1
libxslt 1.1.37-2
libxss 1.2.3-4
libxt 1.3.0-1
libxtst 1.2.4-1
libxv 1.0.12-1
libxvmc 1.0.13-2
libxxf86vm 1.1.5-1
libyaml 0.2.5-2
libyuv r2322+3aebf69d-1
licenses 20220125-2
lightdm 1:1.32.0-4
lightdm-gtk-greeter 1:2.0.8-3
lightdm-gtk-greeter-settings 1.2.2-7
lilv 0.24.20-1
linux-api-headers 6.1.9-1
linux-atm 2.5.2-8
linux-firmware 20230210.bf4115c-1
linux-firmware-bnx2x 20230210.bf4115c-1
linux-firmware-liquidio 20230210.bf4115c-1
linux-firmware-marvell 20230210.bf4115c-1
linux-firmware-mellanox 20230210.bf4115c-1
linux-firmware-nfp 20230210.bf4115c-1
linux-firmware-qcom 20230210.bf4115c-1
linux-firmware-qlogic 20230210.bf4115c-1
linux-firmware-whence 20230210.bf4115c-1
linux-xanmod-anbox 6.2.12-1
linux-xanmod-anbox-headers 6.2.12-1
livecd-sounds 1.0-2
llvm-libs 15.0.7-2
lm_sensors 1:3.6.0.r41.g31d1f125-2
lmdb 0.9.30-3
lrzip 0.651-2
lsb-release 2.0.r48.3cf5103-1
lsscsi 0.32-1
lua 5.4.4-3
lua53 5.3.6-1
luajit 2.1.0.beta3.r471.g505e2c03-1
lv2 1.18.10-1
lvm2 2.03.20-1
lz4 1:1.9.4-1
lzo 2.10-5
lzop 1.04-3
m4 1.4.19-3
mailcap 2.1.53-1
make 4.4.1-2
man-db 2.11.2-1
man-pages 6.04-1
matcha-gtk-theme-git 2023.04.03.r13.g35497ec-1
mc 4.8.29-2
mcfly 0.8.0-1
md4c 0.4.8-1
mdadm 4.2-2
media-player-info 24-2
memtest86+ 6.10-1
memtest86+-efi 6.10-1
mesa 23.0.3-1
mesa-utils 9.0.0-2
mintlocale 1.5.8-1.1
mjpegtools 2.2.1-1
mkinitcpio 35.2-1
mkinitcpio-archiso 68-1
mkinitcpio-busybox 1.35.0-1
mkinitcpio-nfs-utils 0.3-7
mkinitcpio-openswap 0.1.0-3.1
mlocate 0.26.git.20170220-7
mobile-broadband-provider-info 20230416-1
modemmanager 1.20.6-1
mpfr 4.2.0-3
mpg123 1.31.3-1
mpv 1:0.35.1-6
mtdev 1.1.6-2
mtools 1:4.0.43-1
muffin 5.6.4-1
mujs 1.3.3-1
nano 7.2-1
nbd 3.24-2
ncurses 6.4-1
ndctl 76.1-1
ndisc6 1.0.7-1
nemo 5.6.5-1
nemo-fileroller 5.6.0-1
nemo-preview 5.6.0-1
neon 0.32.5-1
net-snmp 5.9.1-5
nettle 3.8.1-1
network-manager-applet 1.32.0-1
networkmanager 1.42.6-1
nfs-utils 2.6.3-1
nfsidmap 2.6.3-1
nftables 1:1.0.7-1
nilfs-utils 2.2.9-2
nlohmann-json 3.11.2-1
nm-connection-editor 1.32.0-1
nmap 7.93-1
noto-fonts 20230401-1
noto-fonts-cjk 20220126-1
noto-fonts-emoji 20220920-1
npth 1.6-4
nspr 4.35-1
nss 3.89-1
ntfs-3g 2022.10.3-1
ntp 4.2.8.p15-3
numactl 2.0.16-1
numlockx 1.2-5
nvidia-dkms 530.41.03-1
nvidia-optimus-support v2023_01-15
nvidia-prime 1.0-4
nvidia-settings 530.41.03-1
nvidia-support v2022_07-05
nvidia-utils 530.41.03-1
nvme-cli 2.4-1
oath-toolkit 2.6.7-1
ocl-icd 2.3.1-1
oniguruma 6.9.8-1
onlyoffice-bin 7.3.3-1
open-vm-tools 6:12.2.0-1
openal 1.23.1-1
opencl-nvidia 530.41.03-1
openconnect 1:9.01-2
opencore-amr 0.1.6-1
openexr 3.1.7-1
openjpeg2 2.5.0-2
openmpi 4.1.5-1
openpmix 4.2.3-2
openssh 9.3p1-1
openssl 3.0.8-1
openvpn 2.6.3-1
optimus-manager 1.4-4.1
optimus-manager-qt 1.6.9-1.1
opus 1.4-1
orc 0.4.33-1
os-prober-btrfs 1.79-5
p11-kit 0.24.1-1
p7zip 1:17.05-1
pacman 6.0.2-6
pacman-contrib 1.9.0-1
pacman-mirrorlist 20230410-1
pacman-static 6.0.2-2
pahole 1:1.24+r29+g02d67c5-1
pam 1.5.2-2
pamac-aur 10.5.1-1
pambase 20221020-1
pango 1:1.50.14-1
pangomm 2.46.3-1
papirus-icon-theme 20230301-1
partclone 0.3.23-1
parted 3.6-1
partimage 0.6.9-14
paru 1.11.1-1.3
patch 2.7.6-9
pavucontrol 1:5.0+r61+gee77d86-2
pbzip2 1.1.13-3
pcaudiolib 1.2-2
pciutils 3.9.0-2
pcre 8.45-3
pcre2 10.42-2
pcsclite 1.9.9-3
pentract-grub-theme 1.0-1
perl 5.36.0-3
perl-clone 0.46-1
perl-encode-locale 1.05-10
perl-error 0.17029-4
perl-file-listing 6.15-2
perl-html-parser 3.81-1
perl-html-tagset 3.20-13
perl-http-cookies 6.10-3
perl-http-daemon 6.16-1
perl-http-date 6.05-6
perl-http-message 6.44-1
perl-http-negotiate 6.01-11
perl-io-html 1.004-3
perl-libwww 6.67-1
perl-lwp-mediatypes 6.04-3
perl-mailtools 2.21-6
perl-net-http 6.22-2
perl-timedate 2.33-4
perl-try-tiny 0.31-2
perl-uri 5.17-1
perl-www-robotrules 6.02-11
perl-xml-parser 2.46-4
perl-xml-writer 0.900-1
persepolis 3.2.0-7
pfetch-git r432.a906ff8-1
pigz 2.7-3
pinentry 1.2.1-1
pipewire 1:0.3.70-1
pipewire-alsa 1:0.3.70-1
pipewire-audio 1:0.3.70-1
pipewire-jack 1:0.3.70-1
pipewire-pulse 1:0.3.70-1
pix 2.8.9-1
pixman 0.42.2-1
pixz 1.0.7-4
pkcs11-helper 1.29.0-2
pkgconf 1.8.1-1
plasma-framework 5.105.0-1
playerctl 2.4.1-3
plymouth 22.02.122-7
polkit 122-1
polkit-gnome 0.105-10
polkit-qt5 0.114.0-1
poppler 23.03.0-1
poppler-data 0.4.12-1
poppler-glib 23.03.0-1
popt 1.19-1
portaudio 1:19.7.0-2
ppp 2.4.9-3
pptpclient 1.10.0-3
preload 0.6.4-7
prelockd 0.9-2.1
procps-ng 3.3.17-1
psmisc 23.6-1
pv 1.6.20-2
python 3.10.10-1
python-atspi 2.46.0-1
python-attrs 22.2.0-1
python-autocommand 2.2.2-1
python-automat 22.10.0-1
python-cairo 1.23.0-3
python-cffi 1.15.1-1
python-chardet 5.1.0-1
python-click 8.1.3-1
python-configobj 5.0.6.r110.g3e2f4cc-3
python-constantly 15.1.0-11
python-contourpy 1.0.7-1
python-cryptography 40.0.1-1
python-cycler 0.11.0-1
python-dateutil 2.8.2-4
python-distro 1.8.0-2
python-fastjsonschema 2.16.3-1
python-fonttools 4.39.3-1
python-geoip 1.3.2-13
python-gobject 3.44.1-1
python-hyperlink 21.0.0-4
python-idna 3.4-1
python-ifaddr 0.2.0-1
python-incremental 22.10.0-1
python-inflect 6.0.4-1
python-injector 0.20.1-2.1
python-jaraco.context 4.3.0-1
python-jaraco.functools 3.6.0-1
python-jaraco.text 3.11.1-1
python-jinja 1:3.1.2-2
python-jsonpatch 1.32-3
python-jsonpointer 2.3-1
python-jsonschema 4.17.3-1
python-kiwisolver 1.4.4-2
python-mako 1.2.4-1
python-manimpango 0.4.3-1
python-markdown 3.4.3-1
python-markupsafe 2.1.2-1
python-matplotlib 3.7.1-3
python-more-itertools 9.1.1-1
python-netifaces 0.11.0-3
python-numpy 1.24.2-1
python-oauthlib 3.2.2-1
python-ordered-set 4.1.0-1
python-packaging 23.0-1
python-pam 2.0.2-1
python-peewee 3.16.1-1
python-pexpect 4.8.0-6
python-pillow 9.4.0-2
python-platformdirs 3.2.0-1
python-ply 3.11-10
python-psutil 5.9.4-1
python-ptyprocess 0.7.0-4
python-py3nvml 0.2.7-1.1
python-pyasn1 0.4.8-7
python-pyasn1-modules 0.2.8-6
python-pycparser 2.21-3
python-pycups 2.0.1-5
python-pycurl 7.45.2-1
python-pydantic 1.10.7-2
python-pyinotify 0.9.6-11
python-pyopenssl 23.1.1-1
python-pyparsing 3.0.9-1
python-pyqt5 5.15.9-1
python-pyqt5-sip 12.12.1-1
python-pyrsistent 0.19.3-1
python-pyserial 3.5-4
python-pytz 2022.7.1-1
python-pyxdg 0.28-1
python-rencode 1.0.6-7
python-requests 2.28.2-1
python-rx 3.2.0-3
python-service-identity 21.1.0-4
python-setproctitle 1.3.2-1
python-setuptools 1:67.6.1-1
python-six 1.16.0-6
python-tinycss2 1.2.1-1
python-tomli 2.0.1-1
python-trove-classifiers 2023.4.18-1
python-twisted 22.10.0-1
python-typing_extensions 4.5.0-1
python-urllib3 1.26.13-1
python-validate-pyproject 0.12.2-1
python-webencodings 0.5.1-9
python-xapp 2.4.0-1
python-xlib 0.33-1
python-yaml 6.0-1
python-zope-interface 6.0-1
qca-qt5 2.3.5-2
qhull 2020.2-4
qpdf 11.3.0-1
qrencode 4.1.1-2
qt5-base 5.15.9+kde+r151-1
qt5-declarative 5.15.9+kde+r23-1
qt5-graphicaleffects 5.15.9-1
qt5-multimedia 5.15.9+kde+r3-1
qt5-quickcontrols 5.15.9-1
qt5-quickcontrols2 5.15.9+kde+r5-1
qt5-speech 5.15.9+kde+r1-1
qt5-svg 5.15.9+kde+r7-1
qt5-translations 5.15.9-1
qt5-wayland 5.15.9+kde+r55-1
qt5-x11extras 5.15.9-1
qt5-xmlpatterns 5.15.9-1
raptor 2.0.16-2
rav1e 0.6.3-1
readline 8.2.001-2
redshift 1.12-6
reflector 2021.11-6
reiserfsprogs 3.6.27-4
rhythmbox 3.4.6-1
rp-pppoe 3.15-2
rpcbind 1.2.6-3
rsync 3.2.7-4
rtmpdump 1:2.4.r99.f1b83c1-2
rubberband 3.2.1-1
ruby 3.0.5-1
ruby-abbrev 0.1.0-4
ruby-base64 0.1.1-4
ruby-benchmark 0.2.0-4
ruby-bigdecimal 3.1.2-4
ruby-bundledgems 3.0.5-1
ruby-bundler 2.4.1-1
ruby-cgi 0.3.6-1
ruby-csv 3.2.5-4
ruby-date 3.2.2-4
ruby-delegate 0.2.0-4
ruby-did_you_mean 1.6.1-4
ruby-digest 3.1.1-1
ruby-drb 2.1.0-5
ruby-english 0.7.1-5
ruby-erb 4.0.2-2
ruby-etc 1.3.0-6
ruby-fcntl 1.0.1-4
ruby-fiddle 1.1.0-4
ruby-fileutils 1.6.0-4
ruby-find 0.1.1-4
ruby-forwardable 1.3.2-6
ruby-getoptlong 0.1.1-3
ruby-io-console 0.5.11-3
ruby-io-nonblock 0.1.0-3
ruby-io-wait 0.2.3-4
ruby-ipaddr 1.2.4-3
ruby-irb 1.4.2-1
ruby-json 2.6.3-1
ruby-logger 1.5.1-3
ruby-minitest 5.16.3-1
ruby-mutex_m 0.1.1-3
ruby-net-http 0.2.2-2
ruby-open-uri 0.2.0-3
ruby-power_assert 2.0.2-1
ruby-psych 4.0.6-1
ruby-racc 1.6.0-3
ruby-rake 13.0.6-1
ruby-rdoc 6.4.0-4
ruby-reline 0.3.1-2
ruby-rexml 3.2.5-1
ruby-ruby2_keywords 0.0.5-1
ruby-stdlib 3.0.5-1
ruby-stringio 3.0.2-4
ruby-test-unit 3.5.7-1
ruby-time 0.2.0-4
ruby-tmpdir 0.1.2-3
ruby-uri 0.11.0-5
rubygems 3.3.25-1
run-parts 5.5-1
samba 4.18.2-1
sane 1.2.1-4
sane-airscan 0.99.27-1
sbc 2.0-1
scanner-support 1-4
screen 4.9.0-1
sdl2 2.26.5-1
sdparm 1.12-1
sed 4.9-3
serd 0.30.16-1
sg3_utils 1.47-1
shaderc 2023.3-1
shadow 4.13-2
shared-mime-info 2.2+13+ga2ffb28-1
simple-scan 44.0-1
slang 2.3.3-2
smartmontools 7.3-1
smbclient 4.18.2-1
sof-firmware 2.2.4-1
solid 5.105.0-1
sonnet 5.105.0-1
sord 0.16.14-1
sound-theme-freedesktop 0.8-5
soundtouch 2.3.2-1
spandsp 0.0.6-4
spdlog 1.11.0-2
speex 1.2.1-1
speexdsp 1.2.1-1
spice 0.15.1-2
spice-protocol 0.14.4-1
spirv-tools 2022.4-1
sqlite 3.41.2-1
squashfs-tools 4.6.1-1
sratom 0.6.14-1
srt 1.5.1-3
sshfs 3.7.3-1
starship 1.14.2-1
startup-notification 0.12-7
sticky-git 1.14.r4.g7760fb1-1
stoken 0.92-4
sudo 1.9.13.p3-1
svt-av1 1.4.1-1
svt-hevc 1.5.1-2
syndication 5.105.0-1
sysfsutils 2.1.1-1
syslinux 6.04.pre2.r11.gbf6db5b4-3
system-config-printer 1.5.18-1
systembus-notify 1.1-2
systemd 253.3-3
systemd-libs 253.3-3
systemd-resolvconf 253.3-3
systemd-sysvcompat 253.3-3
taglib 1.13-1
talloc 2.4.0-2
tar 1.34-2
tcl 8.6.13-1
tcpdump 4.99.3-1
tdb 1.4.8-1
testdisk 7.1-5
tevent 1:0.14.1-1
texinfo 7.0.3-1
thin-provisioning-tools 1.0.3-1
thunderbird 102.10.0-1
timeshift 22.11.2-1
timeshift-autosnap 0.10-1
timezonemap 0.4.5.2-1
tinycompress 1.2.8-2
totem-pl-parser 3.26.6-2
tpm2-tss 3.2.0-3
tracker3 3.5.0-1
tree 2.1.0-1
tslib 1.22-1
ttf-carlito 20130920-6
ttf-dejavu 2.37+18+g9b5d1b2f-3
ttf-fira-sans 1:4.301-2
ttf-hack 3.003-3
ttf-liberation 2.1.5-1
ttf-ms-fonts 2.0-12
twolame 0.4.0-2
tzdata 2023c-1
uchardet 0.0.8-1
udftools 2.3-1
udisks2 2.9.4-1
ufw 0.36.1-3
unarchiver 1.10.7-8
unrar 1:6.2.6-1
unzip 6.0-19
upd72020x-fw 1:1.0.0-1
update-grub 0.0.1-7.1
upower 1.90.0-3
uriparser 0.9.7-1
usb_modeswitch 2.6.1-3
usbmuxd 1.1.1-2
usbutils 015-2
util-linux 2.38.1-3
util-linux-libs 2.38.1-3
v4l-utils 1.24.1-1
vid.stab 1.1-3
virtualbox-guest-utils 7.0.8-1
vmaf 2.3.1-1
volume_key 0.3.12-7
vpnc 1:0.5.3.r526.r213-1
vte-common 0.72.1-1
vte3 0.72.1-1
vulkan-icd-loader 1.3.245-1
wavpack 5.6.0-1
wayland 1.22.0-1
wayland-protocols 1.31-1
wd719x-firmware 1-7
webkit2gtk 2.40.1-1
webkit2gtk-4.1 2.40.1-1
webp-pixbuf-loader 0.2.4-1
webrtc-audio-processing 0.3.1-3
wget 1.21.3-1
which 2.21-6
wildmidi 0.4.5-1
wireless-regdb 2023.02.13-1
wireless_tools 30.pre9-3
wireplumber 0.4.14-1
wmctrl 1.07-6
woff2 1.0.2-4
wpa_supplicant 2:2.10-8
wpebackend-fdo 1.14.2-1
wvdial 1.61-8
wvstreams 4.6.1-20
x264 3:0.164.r3095.baee400-4
x265 3.5-3
xapp 2.4.3-1
xautolock 2.2-6
xbindkeys 1.8.7-4
xcape 1.2-4
xcb-proto 1.15.2-2
xcb-util 0.4.1-1
xcb-util-image 0.4.1-2
xcb-util-keysyms 0.4.1-4
xcb-util-renderutil 0.3.10-1
xcb-util-wm 0.4.2-1
xcursor-vanilla-dmz 0.4.5-2
xdg-dbus-proxy 0.1.4-1
xdg-user-dirs 0.18-1
xdg-user-dirs-gtk 0.11-1
xdg-utils 1.1.3+25+g8ae0263-1
xdotool 3.20211022.1-1
xed 3.2.8-1
xf86-input-evdev 2.10.6-3
xf86-input-libinput 1.3.0-1
xf86-input-synaptics 1.9.2-1
xf86-input-vmmouse 13.2.0-1
xf86-input-void 1.4.2-1
xf86-video-amdgpu 23.0.0-1
xf86-video-ati 1:19.1.0.r15.g7a6a34af-1
xf86-video-dummy 0.4.0-1
xf86-video-fbdev 0.5.0-3
xf86-video-intel 1:2.99.917+923+gb74b67f0-1
xf86-video-nouveau 1.0.17-2
xf86-video-openchrome 0.6.0.r798.g0c75274-2
xf86-video-qxl 0.1.5.r23.g52e9752-2
xf86-video-vesa 2.6.0-1
xf86-video-vmware 13.4.0-1
xf86-video-voodoo 1.2.6-1
xfsprogs 6.2.0-1
xkeyboard-config 2.38-1
xl2tpd 1.3.18-1
xmlsec 1.2.37-1
xorg-bdftopcf 1.1.1-1
xorg-docs 1.7.2-2
xorg-font-util 1.4.0-1
xorg-fonts-100dpi 1.0.4-2
xorg-fonts-75dpi 1.0.4-1
xorg-fonts-alias-100dpi 1.0.5-1
xorg-fonts-alias-75dpi 1.0.5-1
xorg-fonts-encodings 1.0.7-1
xorg-iceauth 1.0.9-1
xorg-mkfontscale 1.2.2-1
xorg-server 21.1.8-1
xorg-server-common 21.1.8-1
xorg-server-devel 21.1.8-1
xorg-server-xephyr 21.1.8-1
xorg-server-xnest 21.1.8-1
xorg-server-xvfb 21.1.8-1
xorg-sessreg 1.1.3-1
xorg-setxkbmap 1.3.3-2
xorg-smproxy 1.0.7-1
xorg-util-macros 1.20.0-2
xorg-x11perf 1.6.2-1
xorg-xauth 1.1.2-1
xorg-xbacklight 1.2.3-3
xorg-xcmsdb 1.0.6-1
xorg-xcursorgen 1.0.8-1
xorg-xdpyinfo 1.3.3-4
xorg-xdriinfo 1.0.7-1
xorg-xev 1.2.5-1
xorg-xgamma 1.0.7-1
xorg-xhost 1.0.9-1
xorg-xinput 1.6.3-3
xorg-xkbcomp 1.4.6-1
xorg-xkbevd 1.1.5-1
xorg-xkbutils 1.0.5-1
xorg-xkill 1.0.6-1
xorg-xlsatoms 1.1.4-1
xorg-xlsclients 1.1.5-1
xorg-xmessage 1.0.6-1
xorg-xmodmap 1.0.11-1
xorg-xpr 1.1.0-1
xorg-xprop 1.2.6-1
xorg-xrandr 1.5.2-1
xorg-xrdb 1.2.1-1
xorg-xrefresh 1.0.7-1
xorg-xset 1.2.5-1
xorg-xsetroot 1.1.3-1
xorg-xvinfo 1.1.5-1
xorg-xwayland 23.1.1-1
xorg-xwd 1.0.8-1
xorg-xwininfo 1.1.6-1
xorg-xwud 1.0.6-1
xorgproto 2022.2-1
xplc 0.3.13-10
xreader 3.6.3-1
xvidcore 1.3.7-2
xxhash 0.8.1-4
xz 5.4.2-1
yaml-cpp 0.7.0-2
youtube-dl 2021.12.17-1
zbar 0.23.90-1
zenity 3.44.0-3
zeromq 4.3.4-2
zimg 3.0.4-1
zip 3.0-10
zlib 1:1.2.13-2
zsh 5.9-3
zsh-autosuggestions 0.7.0-2
zsh-completions 0.34.0-4
zsh-history-substring-search 1.0.2-2
zsh-syntax-highlighting 0.7.1-1
zstd 1.5.5-1
zvbi 0.2.41-1
zxing-cpp 2.0.0-2
